#FIG 3.2  Produced by xfig version 3.2.5a
Landscape
Center
Metric
A4      
100.00
Single
-2
1200 2
0 32 #c6b797
0 33 #eff8ff
0 34 #dccba6
0 35 #404040
0 36 #808080
0 37 #c0c0c0
0 38 #e0e0e0
0 39 #8e8f8e
0 40 #aaaaaa
0 41 #555555
0 42 #c7c3c7
0 43 #565151
0 44 #8e8e8e
0 45 #d7d7d7
0 46 #85807d
0 47 #d2d2d2
0 48 #3a3a3a
0 49 #4573aa
0 50 #aeaeae
0 51 #7b79a5
0 52 #444444
0 53 #73758c
0 54 #f7f7f7
0 55 #414541
0 56 #635dce
0 57 #bebebe
0 58 #515151
0 59 #e7e3e7
0 60 #000049
0 61 #797979
0 62 #303430
0 63 #414141
0 64 #c7b696
# High speed disk
6 5170 576 5715 1395
5 1 0 1 -1 -1 0 0 -1 0.000 0 1 0 0 5442.500 395.500 5170 758 5442 849 5715 758
5 1 0 1 -1 -1 0 0 -1 0.000 0 1 0 0 5442.500 940.500 5170 1303 5442 1394 5715 1303
1 2 0 1 -1 -1 0 0 -1 0.000 1 0.0000 5442 666 272 90 5170 575 5715 758
2 1 0 1 -1 -1 0 0 -1 0.000 0 0 0 0 0 2
	 5715 712 5715 1303
2 1 0 1 -1 -1 0 0 -1 0.000 0 0 0 0 0 2
	 5170 712 5170 1303
-6
# High speed disk
6 6520 576 7065 1395
5 1 0 1 -1 -1 0 0 -1 0.000 0 1 0 0 6792.500 395.500 6520 758 6792 849 7065 758
5 1 0 1 -1 -1 0 0 -1 0.000 0 1 0 0 6792.500 940.500 6520 1303 6792 1394 7065 1303
1 2 0 1 -1 -1 0 0 -1 0.000 1 0.0000 6792 666 272 90 6520 575 7065 758
2 1 0 1 -1 -1 0 0 -1 0.000 0 0 0 0 0 2
	 7065 712 7065 1303
2 1 0 1 -1 -1 0 0 -1 0.000 0 0 0 0 0 2
	 6520 712 6520 1303
-6
# High speed disk
6 7825 576 8370 1395
5 1 0 1 -1 -1 0 0 -1 0.000 0 1 0 0 8097.500 395.500 7825 758 8097 849 8370 758
5 1 0 1 -1 -1 0 0 -1 0.000 0 1 0 0 8097.500 940.500 7825 1303 8097 1394 8370 1303
1 2 0 1 -1 -1 0 0 -1 0.000 1 0.0000 8097 666 272 90 7825 575 8370 758
2 1 0 1 -1 -1 0 0 -1 0.000 0 0 0 0 0 2
	 8370 712 8370 1303
2 1 0 1 -1 -1 0 0 -1 0.000 0 0 0 0 0 2
	 7825 712 7825 1303
-6
# High speed disk
6 5445 3465 5990 4284
5 1 0 1 -1 -1 0 0 -1 0.000 0 1 0 0 5717.500 3284.500 5445 3647 5717 3738 5990 3647
5 1 0 1 -1 -1 0 0 -1 0.000 0 1 0 0 5717.500 3829.500 5445 4192 5717 4283 5990 4192
1 2 0 1 -1 -1 0 0 -1 0.000 1 0.0000 5717 3555 272 90 5445 3464 5990 3647
2 1 0 1 -1 -1 0 0 -1 0.000 0 0 0 0 0 2
	 5990 3601 5990 4192
2 1 0 1 -1 -1 0 0 -1 0.000 0 0 0 0 0 2
	 5445 3601 5445 4192
-6
6 5355 2790 8100 3105
2 4 0 1 0 7 40 -1 20 0.000 0 0 7 0 0 5
	 8100 3105 5355 3105 5355 2790 8100 2790 8100 3105
4 0 0 30 -1 16 12 0.0000 4 195 1800 5850 3015 automatic replication\001
-6
2 2 0 1 0 7 50 -1 -1 0.000 0 0 -1 0 0 5
	 4905 1530 5985 1530 5985 2430 4905 2430 4905 1530
2 2 0 1 0 7 50 -1 -1 0.000 0 0 -1 0 0 5
	 7560 1530 8640 1530 8640 2430 7560 2430 7560 1530
2 2 0 1 0 7 50 -1 -1 0.000 0 0 -1 0 0 5
	 6255 1530 7335 1530 7335 2430 6255 2430 6255 1530
2 1 0 1 0 7 50 -1 -1 0.000 0 0 -1 0 0 2
	 6795 1530 6795 1395
2 1 0 1 0 7 50 -1 -1 0.000 0 0 -1 0 0 2
	 5445 1530 5445 1395
2 1 0 1 0 7 50 -1 -1 0.000 0 0 -1 0 0 2
	 8100 1530 8100 1395
2 1 0 1 0 7 50 -1 -1 0.000 0 0 -1 0 0 2
	 5985 3960 6255 4230
2 2 0 1 0 7 50 -1 -1 0.000 0 0 -1 0 0 5
	 6255 3780 7335 3780 7335 4680 6255 4680 6255 3780
2 1 0 1 0 7 50 -1 -1 0.000 0 0 -1 1 0 2
	2 1 1.00 60.00 120.00
	 6750 3780 5400 2430
2 1 0 1 0 7 50 -1 -1 0.000 0 0 -1 1 0 2
	2 1 1.00 60.00 120.00
	 6840 3780 6795 2430
2 1 0 1 0 7 50 -1 -1 0.000 0 0 -1 1 0 2
	2 1 1.00 60.00 120.00
	 6975 3780 8100 2430
2 2 0 1 0 7 50 -1 -1 0.000 0 0 -1 0 0 5
	 6300 5805 7380 5805 7380 6705 6300 6705 6300 5805
2 1 0 1 0 7 50 -1 -1 0.000 0 0 -1 1 0 2
	1 1 1.00 60.00 120.00
	 6795 5805 6795 4680
4 0 0 50 -1 16 12 0.0000 4 150 960 6345 4410 coordinator\001
4 0 0 50 -1 16 12 0.0000 4 150 900 6345 4140 namenode\001
4 0 0 50 -1 16 12 0.0000 4 150 630 5175 2160 slave 1\001
4 0 0 50 -1 16 12 0.0000 4 150 630 6435 2160 slave 2\001
4 0 0 50 -1 16 12 0.0000 4 150 630 7740 2160 slave 3\001
4 0 0 50 -1 16 12 0.0000 4 150 900 4995 1890 namenode\001
4 0 0 50 -1 16 12 0.0000 4 150 900 6345 1890 namenode\001
4 0 0 50 -1 16 12 0.0000 4 150 900 7650 1890 namenode\001
4 0 0 50 -1 16 12 0.0000 4 150 210 5355 1080 pg\001
4 0 0 50 -1 16 12 0.0000 4 150 210 6705 1080 pg\001
4 0 0 50 -1 16 12 0.0000 4 150 210 8010 1080 pg\001
4 0 0 50 -1 16 12 0.0000 4 150 210 5625 4005 pg\001
4 0 0 50 -1 16 12 0.0000 4 150 495 6570 6255 Client\001
4 0 0 50 -1 17 12 0.0000 4 150 915 6840 5175 PlasmaFS\001
4 0 0 50 -1 17 12 0.0000 4 150 915 6840 5415 native API\001
4 0 0 50 -1 17 12 0.0000 4 150 645 7515 3330 commit\001
