#FIG 3.2  Produced by xfig version 3.2.5a
Landscape
Center
Metric
A4      
100.00
Single
-2
1200 2
1 3 0 1 0 14 50 -1 -1 0.000 1 0.0000 5805 1935 363 363 5805 1935 6120 2115
1 3 0 1 0 14 50 -1 -1 0.000 1 0.0000 8775 1935 363 363 8775 1935 9090 2115
1 3 0 1 0 14 50 -1 -1 0.000 1 0.0000 2700 3960 363 363 2700 3960 3015 4140
1 3 0 1 0 14 50 -1 -1 0.000 1 0.0000 4812 3960 363 363 4812 3960 5127 4140
1 3 0 1 0 14 50 -1 -1 0.000 1 0.0000 6893 3960 363 363 6893 3960 7208 4140
1 3 0 1 0 14 50 -1 -1 0.000 1 0.0000 8820 3960 363 363 8820 3960 9135 4140
1 3 0 1 0 14 50 -1 -1 0.000 1 0.0000 2700 1935 363 363 2700 1935 3015 2115
2 2 0 1 0 16 50 -1 20 0.000 0 0 -1 0 0 5
	 1890 720 3420 720 3420 1125 1890 1125 1890 720
2 2 0 1 0 16 50 -1 20 0.000 0 0 -1 0 0 5
	 5040 720 6570 720 6570 1125 5040 1125 5040 720
2 2 0 1 0 16 50 -1 20 0.000 0 0 -1 0 0 5
	 8010 720 9540 720 9540 1125 8010 1125 8010 720
2 2 0 1 0 14 50 -1 20 0.000 0 0 -1 0 0 5
	 2070 2790 3420 2790 3420 3195 2070 3195 2070 2790
2 2 0 1 0 14 50 -1 20 0.000 0 0 -1 0 0 5
	 4140 2790 5490 2790 5490 3195 4140 3195 4140 2790
2 2 0 1 0 14 50 -1 20 0.000 0 0 -1 0 0 5
	 6120 2790 7470 2790 7470 3195 6120 3195 6120 2790
2 2 0 1 0 14 50 -1 20 0.000 0 0 -1 0 0 5
	 8100 2790 9450 2790 9450 3195 8100 3195 8100 2790
2 2 0 1 0 27 50 -1 20 0.000 0 0 -1 0 0 5
	 4140 4725 5490 4725 5490 5130 4140 5130 4140 4725
2 2 0 1 0 27 50 -1 20 0.000 0 0 -1 0 0 5
	 6120 4725 7470 4725 7470 5130 6120 5130 6120 4725
2 2 0 1 0 27 50 -1 20 0.000 0 0 -1 0 0 5
	 8100 4725 9450 4725 9450 5130 8100 5130 8100 4725
2 1 0 1 0 14 50 -1 -1 0.000 0 0 -1 1 0 2
	1 1 1.00 60.00 120.00
	 2700 1125 2700 1575
2 1 0 1 0 14 50 -1 -1 0.000 0 0 -1 1 0 2
	1 1 1.00 60.00 120.00
	 2700 2295 2700 2790
2 1 0 1 0 14 50 -1 -1 0.000 0 0 -1 1 0 2
	1 1 1.00 60.00 120.00
	 5805 1125 5805 1575
2 1 0 1 0 14 50 -1 -1 0.000 0 0 -1 1 0 2
	1 1 1.00 60.00 120.00
	 5580 2205 4770 2790
2 1 0 1 0 14 50 -1 -1 0.000 0 0 -1 1 0 2
	1 1 1.00 60.00 120.00
	 6030 2205 6840 2790
2 1 0 1 0 14 50 -1 -1 0.000 0 0 -1 1 0 2
	1 1 1.00 60.00 120.00
	 8730 1125 8730 1575
2 1 0 1 0 14 50 -1 -1 0.000 0 0 -1 1 0 2
	1 1 1.00 60.00 120.00
	 8775 2295 8775 2790
2 1 0 1 0 14 50 -1 -1 0.000 0 0 -1 1 0 2
	1 1 1.00 60.00 120.00
	 2700 3195 2700 3600
2 1 0 1 0 14 50 -1 -1 0.000 0 0 -1 1 0 2
	1 1 1.00 60.00 120.00
	 2700 4365 2700 4680
2 1 0 1 0 14 50 -1 -1 0.000 0 0 -1 1 0 2
	1 1 1.00 60.00 120.00
	 4770 3195 4770 3600
2 1 0 1 0 14 50 -1 -1 0.000 0 0 -1 1 0 2
	1 1 1.00 60.00 120.00
	 4815 4320 4815 4725
2 1 0 1 0 14 50 -1 -1 0.000 0 0 -1 1 0 2
	1 1 1.00 60.00 120.00
	 6840 3195 6840 3600
2 1 0 1 0 14 50 -1 -1 0.000 0 0 -1 1 0 2
	1 1 1.00 60.00 120.00
	 6885 4320 6885 4725
2 1 0 1 0 14 50 -1 -1 0.000 0 0 -1 1 0 2
	1 1 1.00 60.00 120.00
	 8775 3195 8775 3600
2 1 0 1 0 14 50 -1 -1 0.000 0 0 -1 1 0 2
	1 1 1.00 60.00 120.00
	 8820 4365 8820 4770
2 2 0 1 0 27 50 -1 20 0.000 0 0 -1 0 0 5
	 2070 4725 3420 4725 3420 5130 2070 5130 2070 4725
4 0 0 20 -1 17 12 0.0000 4 195 1110 5220 990 input piece 2\001
4 0 0 20 -1 17 12 0.0000 4 195 1110 8190 990 input piece 3\001
4 0 0 20 -1 17 12 0.0000 4 195 1110 2025 990 input piece 1\001
4 0 0 20 -1 17 12 0.0000 4 180 1140 2160 3060 map output 1\001
4 0 0 20 -1 17 12 0.0000 4 180 1140 4185 3060 map output 2\001
4 0 0 20 -1 17 12 0.0000 4 180 1140 6165 3060 map output 3\001
4 0 0 20 -1 17 12 0.0000 4 180 1140 8145 3060 map output 4\001
4 0 0 20 -1 17 12 0.0000 4 180 1095 2160 4995 sort output 1\001
4 0 0 20 -1 17 12 0.0000 4 180 1095 4185 4995 sort output 2\001
4 0 0 20 -1 17 12 0.0000 4 180 1095 6165 4995 sort output 3\001
4 0 0 20 -1 17 12 0.0000 4 180 1095 8190 4995 sort output 4\001
4 0 0 20 -1 17 16 0.0000 4 210 510 10125 1035 D=3\001
4 0 0 20 -1 17 16 0.0000 4 210 525 10080 3060 N=4\001
4 0 0 20 -1 16 12 0.0000 4 150 375 2520 1980 map\001
4 0 0 20 -1 16 12 0.0000 4 150 375 5625 1980 map\001
4 0 0 20 -1 16 12 0.0000 4 150 375 8595 1980 map\001
4 0 0 20 -1 16 12 0.0000 4 135 330 2520 4005 sort\001
4 0 0 20 -1 16 12 0.0000 4 135 330 4635 4005 sort\001
4 0 0 20 -1 16 12 0.0000 4 135 330 6705 4005 sort\001
4 0 0 20 -1 16 12 0.0000 4 135 330 8685 4005 sort\001
